# 3ds Max Wavefront OBJ Exporter v0.97b - (c)2007 guruware
# File Created: 21.04.2018 11:47:26

newmtl wire_028028177
	Ns 32
	d 1
	Tr 0
	Tf 1 1 1
	illum 2
	Ka 0.1098 0.1098 0.6941
	Kd 0.1098 0.1098 0.6941
	Ks 0.3500 0.3500 0.3500
